-------------------------------------------------------------------------------
Test set: com.capgemini.it.aem.academyws.core.schedulers.SimpleScheduledTaskTest
-------------------------------------------------------------------------------
Tests run: 1, Failures: 0, Errors: 0, Skipped: 0, Time elapsed: 0.055 s - in com.capgemini.it.aem.academyws.core.schedulers.SimpleScheduledTaskTest
