-------------------------------------------------------------------------------
Test set: com.capgemini.it.aem.academyws.core.listeners.SimpleResourceListenerTest
-------------------------------------------------------------------------------
Tests run: 1, Failures: 0, Errors: 0, Skipped: 0, Time elapsed: 0.001 s - in com.capgemini.it.aem.academyws.core.listeners.SimpleResourceListenerTest
